file,packages,dependencies,processing_time,definition_eval,grounding,solving,score_removed,score_changed,error
rand0aa5c1.cudf,,,2330,732074,,,,,Out of resources
randf406d5.cudf,,,2430,706190,,,,,Out of resources
rande4fcd8.cudf,,,2547,965211,,,,,Out of resources
rand7b4167.cudf,,,2070,620108,,,,,Out of resources
randa651ed.cudf,,,2154,663996,,,,,Out of resources
randa45895.cudf,,,2193,627825,,,,,Out of resources
randd8bf6a.cudf,,,2296,717942,,,,,Out of resources
randf17677.cudf,,,2153,737165,,,,,Out of resources
rand908403.cudf,,,2021,659865,,,,,Out of resources
rand2fe899.cudf,,,2471,733565,,,,,Out of resources
rand06f749.cudf,,,2029,694504,,,,,Out of resources
rand847939.cudf,,,1905,619854,,,,,Out of resources
rand49d73b.cudf,,,2040,698469,,,,,Out of resources
randa870aa.cudf,,,1929,636095,,,,,Out of resources
rand394916.cudf,,,2241,672929,,,,,Out of resources
rand4d6b1c.cudf,,,2182,626096,,,,,Out of resources
rand2d2fd0.cudf,,,2567,794193,,,,,Out of resources
randc10393.cudf,,,2142,615784,,,,,Out of resources
rand95e48b.cudf,,,2262,639456,,,,,Out of resources
rand14ba69.cudf,,,2056,689015,,,,,Out of resources
randf61f65.cudf,,,2461,944710,,,,,Out of resources
rand50a937.cudf,,,1077,883825,,,,,Out of resources
