-- START --
>>> Start processing at 08:08:20: rand95e48b.cudf
>>> Finished processing after 2262s: rand95e48b.cudf
>>> Start processing at 08:46:02: rande4fcd8.cudf
>>> Finished processing after 2547s: rande4fcd8.cudf
>>> Start processing at 09:28:29: rand14ba69.cudf
>>> Finished processing after 2056s: rand14ba69.cudf
>>> Start processing at 10:02:45: rand908403.cudf
>>> Finished processing after 2021s: rand908403.cudf
>>> Start processing at 10:36:26: randf61f65.cudf
>>> Finished processing after 2461s: randf61f65.cudf
>>> Start processing at 11:17:27: randf406d5.cudf
>>> Finished processing after 2430s: randf406d5.cudf
>>> Start processing at 11:57:58: randa45895.cudf
>>> Finished processing after 2193s: randa45895.cudf
>>> Start processing at 12:34:31: rand2d2fd0.cudf
>>> Finished processing after 2567s: rand2d2fd0.cudf
>>> Start processing at 13:17:17: randa651ed.cudf
>>> Finished processing after 2154s: randa651ed.cudf
>>> Start processing at 13:53:11: rand06f749.cudf
>>> Finished processing after 2029s: rand06f749.cudf
>>> Start processing at 14:27:00: randc10393.cudf
>>> Finished processing after 2142s: randc10393.cudf
>>> Start processing at 15:02:42: rand0aa5c1.cudf
>>> Finished processing after 2330s: rand0aa5c1.cudf
>>> Start processing at 15:41:32: rand7b4167.cudf
>>> Finished processing after 2070s: rand7b4167.cudf
>>> Start processing at 16:16:02: rand2fe899.cudf
>>> Finished processing after 2471s: rand2fe899.cudf
>>> Start processing at 16:57:13: rand394916.cudf
>>> Finished processing after 2241s: rand394916.cudf
>>> Start processing at 17:34:34: rand50a937.cudf
>>> Finished processing after 1077s: rand50a937.cudf
>>> Start processing at 17:52:31: rand49d73b.cudf
>>> Finished processing after 2040s: rand49d73b.cudf
>>> Start processing at 18:26:32: randd8bf6a.cudf
>>> Finished processing after 2296s: randd8bf6a.cudf
>>> Start processing at 19:04:48: rand4d6b1c.cudf
>>> Finished processing after 2182s: rand4d6b1c.cudf
>>> Start processing at 19:41:10: randf17677.cudf
>>> Finished processing after 2153s: randf17677.cudf
>>> Start processing at 20:17:03: randa870aa.cudf
>>> Finished processing after 1929s: randa870aa.cudf
>>> Start processing at 20:49:12: rand847939.cudf
>>> Finished processing after 1905s: rand847939.cudf
