-- START --
>>> Start processing at 14:53:41: rand7141b1.cudf
>>> Finished processing after 33s: rand7141b1.cudf
>>> Start processing at 14:54:14: randaafcce.cudf
>>> Finished processing after 33s: randaafcce.cudf
>>> Start processing at 14:54:47: rand655e63.cudf
>>> Finished processing after 34s: rand655e63.cudf
>>> Start processing at 14:55:21: rand81406f.cudf
>>> Finished processing after 35s: rand81406f.cudf
>>> Start processing at 14:55:56: rand6b4d6e.cudf
>>> Finished processing after 34s: rand6b4d6e.cudf
>>> Start processing at 14:56:30: randec88d5.cudf
>>> Finished processing after 34s: randec88d5.cudf
>>> Start processing at 14:57:04: rand7902a8.cudf
>>> Finished processing after 33s: rand7902a8.cudf
>>> Start processing at 14:57:36: rand0695fb.cudf
>>> Finished processing after 33s: rand0695fb.cudf
>>> Start processing at 14:58:09: randa223c3.cudf
>>> Finished processing after 33s: randa223c3.cudf
>>> Start processing at 14:58:42: rand3dec28.cudf
>>> Finished processing after 33s: rand3dec28.cudf
>>> Start processing at 14:59:15: rand835640.cudf
>>> Finished processing after 34s: rand835640.cudf
>>> Start processing at 14:59:49: rand8cc693.cudf
>>> Finished processing after 33s: rand8cc693.cudf
>>> Start processing at 15:00:22: rand332173.cudf
>>> Finished processing after 34s: rand332173.cudf
>>> Start processing at 15:00:56: rand878003.cudf
>>> Finished processing after 34s: rand878003.cudf
>>> Start processing at 15:01:30: randfa4522.cudf
>>> Finished processing after 35s: randfa4522.cudf
