Number of models: 1
Model 1
=======
structure  : OutputVoc {
  isChanged = { car; door; engine; wheel }
  isInstalledAfter = { car_v1; door_v1; engine_v2; wheel_v2 }
  isInstalledBefore = {  }
  isNewlyInstalled = { car; door; engine; wheel }
  isNotUpToDate = { door; wheel }
  isRemoved = {  }
}

