package: libsoup-gnome2.4-1
version: 4
installed: true

package: libfontconfig1
version: 4
installed: true

package: libstdc++6-4.4-dev
version: 1
installed: true

package: libpt-1.10.10
version: 2
installed: true

package: xdg-utils
version: 1
installed: true

package: g++
version: 4
installed: true

package: procps
version: 3
installed: true

package: libtommath0
version: 1
installed: true

package: liburi-perl
version: 11
installed: true

package: libxine1-bin
version: 1
installed: true

package: libfltk1.1
version: 6
installed: true

package: sysv-rc
version: 4
installed: true

package: libdca0
version: 1
installed: true

package: libfaad2
version: 1
installed: true

package: psmisc
version: 1
installed: true

package: libqt4-qt3support
version: 5
installed: true

package: po-debconf
version: 1
installed: true

package: libwpg-0.1-1
version: 1
installed: true

package: libxcursor1
version: 2
installed: true

package: libgssapi-krb5-2
version: 4
installed: true

package: libcpufreq0
version: 3
installed: true

package: texlive-doc-base
version: 2
installed: true

package: libbeagle1
version: 3
installed: true

package: xserver-xorg-video-fbdev
version: 1
installed: true

package: apmd
version: 5
installed: true

package: libstreamanalyzer0
version: 3
installed: true

package: libgnome2-perl
version: 3
installed: true

package: ooobasis3.1-binfilter
version: 1
installed: true

package: libtext-glob-perl
version: 2
installed: true

package: libsmbclient
version: 5
installed: true

package: libgnomeprint2.2-0
version: 3
installed: true

package: libgstreamer-plugins-base0.10-0
version: 15
installed: true

package: libgksu1.2-0
version: 2
installed: true

package: libcamel1.2-11
version: 2
installed: true

package: python-gnomekeyring
version: 1
installed: true

package: libalut0
version: 2
installed: true

package: xz-utils
version: 1
installed: true

package: libqtcore4
version: 7
installed: true

package: gnuchess
version: 2
installed: true

package: liblouis-data
version: 1
installed: true

package: gnome-system-tools
version: 6
installed: true

package: zlib1g-dev
version: 6
installed: true

package: libaa1
version: 4
installed: true

package: libdjvulibre-text
version: 2
installed: true

package: desktop-file-utils
version: 2
installed: true

package: libapm1
version: 2
installed: true

package: gnome-system-monitor
version: 2
installed: true

package: libtext-wrapi18n-perl
version: 1
installed: true

package: libqt4-script
version: 5
installed: true

package: time
version: 1
installed: true

package: libpulse0
version: 5
installed: true

package: libntfs-3g54
version: 1
installed: true

package: libgconf2-ruby
version: 3
installed: true

package: libtdagent
version: 1
installed: true

package: evolution-plugins
version: 2
installed: true

package: binutils
version: 7
installed: true

package: python-celementtree
version: 1
installed: true

package: libblkid1
version: 6
installed: true

package: python-debian
version: 2
installed: true

package: console-setup
version: 2
installed: true

package: icedove
version: 8
installed: true

package: libxklavier15
version: 2
installed: true

package: libxklavier12
version: 2
installed: true

package: libkrb5-3
version: 6
installed: true

package: python-support
version: 9
installed: true

package: wwwconfig-common
version: 3
installed: true

package: libaprutil1
version: 3
installed: true

package: streamer
version: 1
installed: true

package: libspectre1
version: 1
installed: true

package: python-configobj
version: 5
installed: true

package: tcl8.5
version: 3
installed: true

package: kdebase-runtime-data
version: 5
installed: true

package: libwmf0.2-7
version: 2
installed: true

package: libbluetooth2
version: 1
installed: true

package: gstreamer0.10-tools
version: 2
installed: true

package: libgtk2.0-0
version: 45
installed: true

package: libmng1
version: 2
installed: true

package: libxml-sax-perl
version: 6
installed: true

package: xserver-common
version: 2
installed: true

package: python-gconf
version: 3
installed: true

package: libgeoclue0
version: 3
installed: true

package: mysql-common
version: 2
installed: true

package: traceroute
version: 1
installed: true

package: cups
version: 5
installed: true

package: libgnomeprintui2.2-0
version: 4
installed: true

package: libpcap0.8
version: 5
installed: true

package: gstreamer0.10-plugins-bad
version: 8
installed: true

package: libmms0
version: 2
installed: true

package: ekiga
version: 2
installed: true

package: libepc-common
version: 1
installed: true

package: libwnck22
version: 3
installed: true

package: libgdbm3
version: 2
installed: true

package: openssl
version: 6
installed: true

package: libnm-glib0
version: 1
installed: true

package: language-env
version: 1
installed: true

package: libqt4-webkit
version: 4
installed: true

package: netpbm
version: 5
installed: true

package: x11-xfs-utils
version: 1
installed: true

package: libboost-python1.40.0
version: 2
installed: true

package: xserver-xorg-video-voodoo
version: 1
installed: true

package: python-openssl
version: 2
installed: true

package: gazpacho
version: 2
installed: true

package: python2.5
version: 8
installed: true

package: libgucharmap7
version: 2
installed: true

package: at-spi
version: 2
installed: true

package: libgnome-menu2
version: 4
installed: true

package: xfonts-scalable
version: 2
installed: true

package: python-kiwi
version: 3
installed: true

package: openoffice.org3-impress
version: 1
installed: true

package: libcamel1.2-14
version: 3
installed: true

package: ooobasis3.1-es-impress
version: 1
installed: true

package: iceweasel-l10n-es-ar
version: 1
installed: true

package: libgtk2.0-common
version: 1
installed: true

package: libisofs6
version: 4
installed: true

package: libgmyth0
version: 1
installed: true

package: linux-patch-tuxonice
version: 1
installed: true

package: gcc-4.4-base
version: 2
installed: true

package: libqt4-sql-mysql
version: 1
installed: true

package: gconf2
version: 5
installed: true

package: python-gtksourceview2
version: 4
installed: true

package: kdelibs-data
version: 4
installed: true

package: uno-libs3
version: 1
installed: true

package: vim-runtime
version: 2
installed: true

package: cpio
version: 3
installed: true

package: libtunepimp5
version: 1
installed: true

package: python-twisted-conch
version: 1
installed: true

package: x11-xkb-utils
version: 1
installed: true

package: libpolkit-dbus2
version: 2
installed: true

package: maxima-share
version: 1
installed: true

package: gcc
version: 6
installed: true

package: xterm
version: 3
installed: true

package: meld
version: 2
installed: true

package: libcroco3
version: 3
installed: true

package: hostname
version: 2
installed: true

package: lzma
version: 3
installed: true

package: libmysqlclient16
version: 2
installed: true

package: libcdio10
version: 1
installed: true

package: xorg-docs-core
version: 1
installed: true

package: gnome-media-common
version: 2
installed: true

package: libexempi3
version: 2
installed: true

package: libedataserver1.2-11
version: 6
installed: true

package: libavahi-client3
version: 3
installed: true

package: evolution-data-server-common
version: 2
installed: true

package: libncurses5
version: 7
installed: true

package: wpasupplicant
version: 2
installed: true

package: kdelibs5-data
version: 3
installed: true

package: x11-common
version: 5
installed: true

package: grub2
version: 1
installed: true

package: cups-common
version: 2
installed: true

package: gnome-accessibility-themes
version: 2
installed: true

package: python-serial
version: 1
installed: true

package: libpci3
version: 3
installed: true

package: libmpeg3-1
version: 2
installed: true

package: libvcdinfo0
version: 2
installed: true

package: libmpcdec6
version: 2
installed: true

package: libdbus-1-3
version: 6
installed: true

package: gnome-main-menu
version: 1
installed: true

package: lmodern
version: 3
installed: true

package: gnome-mount
version: 3
installed: true

package: liblockfile1
version: 4
installed: true

package: libeggdbus-1-0
version: 2
installed: true

package: apt-utils
version: 4
installed: true

package: dnsutils
version: 3
installed: true

package: cheese
version: 2
installed: true

package: freedesktop-sound-theme
version: 1
installed: true

package: linux-source-2.6.30
version: 9
installed: true

package: djvulibre-desktop
version: 2
installed: true

package: libarchive1
version: 4
installed: true

package: libglib2.0-dev
version: 29
installed: true

package: dasher
version: 3
installed: true

package: fontconfig-config
version: 2
installed: true

package: libwnck-common
version: 1
installed: true

package: emacsen-common
version: 3
installed: true

package: libxrender1
version: 2
installed: true

package: gnome-games-data
version: 4
installed: true

package: genisoimage
version: 1
installed: true

package: iamerican
version: 2
installed: true

package: psutils
version: 1
installed: true

package: installation-report
version: 1
installed: true

package: libclamav6
version: 3
installed: true

package: safelife
version: 1
installed: true

package: qt4-qtconfig
version: 1
installed: true

package: libxdmcp-dev
version: 2
installed: true

package: python-twisted-bin
version: 1
installed: true

package: ooobasis3.1-es-draw
version: 1
installed: true

package: libbrasero-media0
version: 2
installed: true

package: libgmp3c2
version: 2
installed: true

package: libdns53
version: 1
installed: true

package: libdns45
version: 1
installed: true

package: libgnome-bluetooth7
version: 3
installed: true

package: reportbug
version: 3
installed: true

package: grandr
version: 1
installed: true

package: libcaca0
version: 2
installed: true

package: libmpcdec3
version: 1
installed: true

package: libxau-dev
version: 2
installed: true

package: python-libmimic
version: 1
installed: true

package: pcmciautils
version: 1
installed: true

package: libsepol1
version: 6
installed: true

package: libgtksourceview2.0-common
version: 2
installed: true

package: libseed0
version: 2
installed: true

package: whois
version: 1
installed: true

package: libgomp1
version: 5
installed: true

package: xbase-clients
version: 8
installed: true

package: python-chardet
version: 1
installed: true

package: libxxf86vm1
version: 1
installed: true

package: readline-common
version: 1
installed: true

package: libaprutil1-ldap
version: 1
installed: true

package: libavdevice52
version: 2
installed: true

package: netbase
version: 18
installed: true

package: libpng12-0
version: 5
installed: true

package: manpages-dev
version: 1
installed: true

package: sgml-base
version: 4
installed: true

package: python-clientform
version: 3
installed: true

package: python-rdflib
version: 1
installed: true

package: libcurl3-gnutls
version: 3
installed: true

package: sgml-data
version: 5
installed: true

package: xfonts-100dpi
version: 3
installed: true

package: fuse-utils
version: 5
installed: true

package: gettext
version: 7
installed: true

package: debianutils
version: 22
installed: true

package: gstreamer0.10-plugins-base
version: 10
installed: true

package: libpt2.6.5
version: 2
installed: true

package: ooobasis3.1-base
version: 1
installed: true

package: lsb-base
version: 22
installed: true

package: libmpeg2-4
version: 1
installed: true

package: libgtkhtml2-0
version: 3
installed: true

package: libevent-1.4-2
version: 5
installed: true

package: libgail18
version: 3
installed: true

package: libplasma3
version: 5
installed: true

package: guile-1.6-libs
version: 2
installed: true

package: libebackend1.2-0
version: 5
installed: true

package: libopencore-amrwb0
version: 1
installed: true

package: tcpd
version: 1
installed: true

package: libffi5
version: 2
installed: true

package: libapr1
version: 4
installed: true

package: xserver-xorg-video-sisusb
version: 1
installed: true

package: libpcsclite1
version: 6
installed: true

package: libpoppler5
version: 1
installed: true

package: libgtkhtml-editor-common
version: 1
installed: true

package: libpoppler3
version: 1
installed: true

package: esound-clients
version: 2
installed: true

package: gnome-settings-daemon
version: 3
installed: true

package: ooobasis3.1-core07
version: 1
installed: true

package: ooobasis3.1-core06
version: 1
installed: true

package: libgtkspell0
version: 3
installed: true

package: ooobasis3.1-core05
version: 1
installed: true

package: ooobasis3.1-core04
version: 1
installed: true

package: telepathy-salut
version: 1
installed: true

package: ooobasis3.1-core03
version: 1
installed: true

package: ooobasis3.1-core02
version: 1
installed: true

package: ooobasis3.1-core01
version: 1
installed: true

package: liblzma1
version: 3
installed: true

package: libvlccore2
version: 3
installed: true

package: libgirepository1.0-0
version: 1
installed: true

package: python-tagpy
version: 1
installed: true

package: libsasl2-modules
version: 4
installed: true

package: ethtool
version: 1
installed: true

package: pstoedit
version: 1
installed: true

package: libmagickcore2
version: 3
installed: true

package: libilmbase6
version: 2
installed: true

package: python-gtkglext1
version: 1
installed: true

package: libtrackerclient0
version: 4
installed: true

package: libiso9660-7
version: 1
installed: true

package: mawk
version: 2
installed: true

package: linux-image-2.6.30-rxart
version: 1
installed: true

package: espeak-data
version: 1
installed: true

package: geeqie
version: 2
installed: true

package: vlc
version: 5
installed: true

package: geoclue-yahoo
version: 1
installed: true

package: libxine1-plugins
version: 2
installed: true

package: libitalc
version: 1
installed: true

package: cron
version: 6
installed: true

package: menu-xdg
version: 2
installed: true

package: x11proto-composite-dev
version: 2
installed: true

package: libnautilus-burn4
version: 1
installed: true

package: python-pkg-resources
version: 6
installed: true

package: x11proto-xext-dev
version: 4
installed: true

package: libxcb-render-util0
version: 3
installed: true

package: openmovieeditor
version: 1
installed: true

package: xserver-xorg
version: 6
installed: true

package: libggzmod4
version: 2
installed: true

package: freepats
version: 1
installed: true

package: adduser
version: 15
installed: true

package: gdebi
version: 2
installed: true

package: python-elementtree
version: 3
installed: true

package: libcomerr2
version: 5
installed: true

package: libmimic0
version: 2
installed: true

package: libedata-cal1.2-6
version: 5
installed: true

package: ooobasis3.1-testtool
version: 1
installed: true

package: libgweather-common
version: 2
installed: true

package: libgstfarsight0.10-0
version: 4
installed: true

package: linux-libc-dev
version: 2
installed: true

package: libxrandr-dev
version: 4
installed: true

package: libstdc++6
version: 18
installed: true

package: libgupnp-1.0-3
version: 4
installed: true

package: deborphan
version: 3
installed: true

package: geoip-database
version: 1
installed: true

package: openssh-blacklist
version: 1
installed: true

package: system-tools-backends
version: 3
installed: true

package: texlive-luatex
version: 2
installed: true

package: brasero-common
version: 2
installed: true

package: libxine1-misc-plugins
version: 2
installed: true

package: fakeroot
version: 2
installed: true

package: libpam-ck-connector
version: 1
installed: true

package: luatex
version: 3
installed: true

package: libavahi-ui0
version: 3
installed: true

package: libproc-daemon-perl
version: 1
installed: true

package: debhelper
version: 21
installed: true

package: gnome-mag
version: 3
installed: true

package: libgnome2-ruby1.8
version: 1
installed: true

package: xserver-xorg-video-trident
version: 1
installed: true

package: gzip
version: 3
installed: true

package: libdjvulibre21
version: 5
installed: true

package: gnome-app-install
version: 1
installed: true

package: sudo
version: 1
installed: true

package: x11proto-input-dev
version: 3
installed: true

package: libfam0
version: 1
installed: true

package: update-inetd
version: 2
installed: true

package: xfonts-mathml
version: 1
installed: true

package: libk3b3
version: 2
installed: true

package: seahorse
version: 5
installed: true

package: libclucene0ldbl
version: 2
installed: true

package: network-manager
version: 4
installed: true

package: clamav-freshclam
version: 2
installed: true

package: lsof
version: 2
installed: true

package: ppp
version: 10
installed: true

package: gdebi-core
version: 1
installed: true

package: evince-common
version: 2
installed: true

package: bsdmainutils
version: 2
installed: true

package: yelp
version: 5
installed: true

package: cups-driver-gutenprint
version: 1
installed: true

package: python-nose
version: 4
installed: true

package: gcc-4.4
version: 2
installed: true

package: intltool-debian
version: 2
installed: true

package: libgtk2.0-dev
version: 28
installed: true

package: python-bugbuddy
version: 3
installed: true

package: python-pam
version: 1
installed: true

package: libftgl2
version: 2
installed: true

package: base-passwd
version: 4
installed: true

package: docbook-xml
version: 8
installed: true

package: xorg
version: 1
installed: true

package: whiptail
version: 2
installed: true

package: liblircclient0
version: 2
installed: true

package: gcc-4.3-base
version: 2
installed: true

package: libpaper1
version: 2
installed: true

package: ruby1.8
version: 5
installed: true

package: libgpgme11
version: 7
installed: true

package: mktemp
version: 1
installed: true

package: libpoppler-glib4
version: 2
installed: true

package: xserver-xorg-video-i740
version: 1
installed: true

package: libcarp-clan-perl
version: 2
installed: true

package: libnotify1
version: 3
installed: true

package: openoffice.org-ure
version: 1
installed: true

package: libicu42
version: 2
installed: true

package: dasher-data
version: 2
installed: true

package: gstreamer0.10-plugins-good
version: 11
installed: true

package: gstreamer0.10-alsa
version: 2
installed: true

package: gnuplot-nox
version: 2
installed: true

package: libreadline6
version: 2
installed: true

package: ssh
version: 5
installed: true

package: cups-bsd
version: 1
installed: true

package: libgsl0ldbl
version: 2
installed: true

package: libpolkit-agent-1-0
version: 2
installed: true

package: libpoppler-glib3
version: 1
installed: true

package: libwebkit-1.0-common
version: 2
installed: true

package: exim4-config
version: 2
installed: true

package: dbus
version: 9
installed: true

package: console-data
version: 5
installed: true

package: vino
version: 2
installed: true

package: libfribidi0
version: 3
installed: true

package: libss2
version: 3
installed: true

package: libglade2-ruby
version: 3
installed: true

package: python-epsilon
version: 2
installed: true

package: libdvdread4
version: 2
installed: true

package: xserver-xorg-video-chips
version: 1
installed: true

package: xinput
version: 2
installed: true

package: kernel-package
version: 3
installed: true

package: libsysfs-dev
version: 1
installed: true

package: mancoosi-contest
version: 1
installed: true

package: iceweasel
version: 8
installed: true

package: x11proto-kb-dev
version: 1
installed: true

package: anacron
version: 1
installed: true

package: gnome-mime-data
version: 1
installed: true

package: mtools
version: 3
installed: true

package: libxcb1-dev
version: 2
installed: true

package: xkb-data
version: 6
installed: true

package: grub2-splashimages
version: 1
installed: true

package: libatasmart4
version: 2
installed: true

package: ooobasis3.1-images
version: 1
installed: true

package: librdf0
version: 3
installed: true

package: libnet-ip-perl
version: 2
installed: true

package: emacs22-common
version: 2
installed: true

package: libcdaudio1
version: 2
installed: true

package: libatk1.0-dev
version: 6
installed: true

package: usplash-theme-debian
version: 1
installed: true

package: ooobasis3.1-gnome-integration
version: 1
installed: true

package: libmagick++2
version: 2
installed: true

package: vlc-nox
version: 3
installed: true

package: libxss1
version: 1
installed: true

package: libevent1
version: 1
installed: true

package: libdirectfb-extra
version: 1
installed: true

package: libwrap0
version: 3
installed: true

package: util-linux-locales
version: 1
installed: true

package: libusplash-dev
version: 1
installed: true

package: juk
version: 3
installed: true

package: bogofilter-bdb
version: 1
installed: true

package: python-pysqlite2
version: 5
installed: true

package: gstreamer0.10-plugins-ugly
version: 4
installed: true

package: gnome-themes-more
version: 1
installed: true

package: python-coherence
version: 1
installed: true

package: liblua50
version: 2
installed: true

package: openoffice.org3-math
version: 1
installed: true

package: ooobasis3.1-kde-integration
version: 1
installed: true

package: libgl1-mesa-glx
version: 2
installed: true

package: libebml0
version: 1
installed: true

package: libx11-6
version: 5
installed: true

package: debian-faq
version: 1
installed: true

package: libxcb-render-util0-dev
version: 1
installed: true

package: librsvg2-2
version: 5
installed: true

package: libidn11
version: 3
installed: true

package: ibritish
version: 2
installed: true

package: desktop-base
version: 6
installed: true

package: libsm-dev
version: 3
installed: true

package: gsfonts
version: 4
installed: true

package: make
version: 4
installed: true

package: totem
version: 6
installed: true

package: alacarte
version: 2
installed: true

package: libgnomecanvas2-ruby1.8
version: 1
installed: true

package: gtk2-engines
version: 6
installed: true

package: gcc-4.3
version: 3
installed: true

package: libwxbase2.8-0
version: 3
installed: true

package: libasound2
version: 9
installed: true

package: libparted1.8-12
version: 2
installed: true

package: gnome-session-canberra
version: 1
installed: true

package: geeqie-common
version: 1
installed: true

package: xtrans-dev
version: 1
installed: true

package: devicekit-disks
version: 5
installed: true

package: libruby1.8
version: 16
installed: true

package: libcupsmime1
version: 2
installed: true

package: gnome-volume-manager
version: 2
installed: true

package: unzip
version: 1
installed: true

package: libaudit0
version: 1
installed: true

package: libusb-1.0-0
version: 3
installed: true

package: ntfsprogs
version: 2
installed: true

package: festvox-kallpc16k
version: 1
installed: true

package: kolourpaint4
version: 2
installed: true

package: libkeyutils1
version: 1
installed: true

package: libaudio2
version: 1
installed: true

package: libtext-iconv-perl
version: 2
installed: true

package: libraw1394-8
version: 1
installed: true

package: xserver-xorg-video-v4l
version: 1
installed: true

package: oxygen-icon-theme
version: 2
installed: true

package: libclutter-0.8-0
version: 1
installed: true

package: libselinux1
version: 10
installed: true

package: libphonon4
version: 8
installed: true

package: libgnome2-vfs-perl
version: 2
installed: true

package: openoffice.org-debian-menus
version: 1
installed: true

package: libx86-1
version: 2
installed: true

package: odbcinst1debian1
version: 3
installed: true

package: xserver-xorg-video-sis
version: 1
installed: true

package: tdagent
version: 1
installed: true

package: libxcb-keysyms1
version: 2
installed: true

package: libempathy-gtk28
version: 3
installed: true

package: libswfdec-0.8-0
version: 1
installed: true

package: kdelibs5
version: 10
installed: true

package: zenity
version: 3
installed: true

package: libattr1
version: 4
installed: true

package: libk3b3-extracodecs
version: 1
installed: true

package: passwd
version: 6
installed: true

package: libntfs10
version: 2
installed: true

package: libgksu2-0
version: 4
installed: true

package: wodim
version: 2
installed: true

package: openoffice.org3-es
version: 1
installed: true

package: sed
version: 12
installed: true

package: software-properties-gtk
version: 1
installed: true

package: libacl1
version: 2
installed: true

package: xserver-xorg-input-kbd
version: 1
installed: true

package: libthai0
version: 3
installed: true

package: k3b
version: 3
installed: true

package: python2.6-minimal
version: 1
installed: true

package: ooobasis3.1-es-base
version: 1
installed: true

package: libblas3gf
version: 1
installed: true

package: libgtkmm-2.4-1c2a
version: 7
installed: true

package: evolution-data-server
version: 4
installed: true

package: iceweasel-gnome-support
version: 1
installed: true

package: libperl5.10
version: 3
installed: true

package: libclutter-gtk-0.10-0
version: 2
installed: true

package: nautilus
version: 10
installed: true

package: gpgv
version: 1
installed: true

package: ghostscript-x
version: 3
installed: true

package: gnome-screensaver
version: 6
installed: true

package: perl
version: 57
installed: true

package: doc-linux-text
version: 3
installed: true

package: libdc1394-22
version: 1
installed: true

package: gvfs
version: 4
installed: true

package: libxpm4
version: 1
installed: true

package: ooobasis3.1-xsltfilter
version: 1
installed: true

package: libgcrypt11
version: 5
installed: true

package: soprano-daemon
version: 1
installed: true

package: liba52-0.7.4
version: 1
installed: true

package: libgimp2.0
version: 7
installed: true

package: libmagic1
version: 2
installed: true

package: libk5crypto3
version: 5
installed: true

package: klamav
version: 1
installed: true

package: dosfstools
version: 1
installed: true

package: cups-client
version: 3
installed: true

package: makedev
version: 14
installed: true

package: libxmuu1
version: 1
installed: true

package: dictionaries-common
version: 19
installed: true

package: texlive-common
version: 3
installed: true

package: unrar
version: 2
installed: true

package: libqt4-designer
version: 4
installed: true

package: libcanberra-gtk0
version: 7
installed: true

package: libtag1c2a
version: 5
installed: true

package: libnet-ssleay-perl
version: 3
installed: true

package: python-gmenu
version: 2
installed: true

package: libsndfile1
version: 3
installed: true

package: libshout3
version: 1
installed: true

package: util-linux
version: 9
installed: true

package: libpisock9
version: 2
installed: true

package: libgdict-1.0-6
version: 2
installed: true

package: libedataserverui1.2-8
version: 5
installed: true

package: ttf-dejavu-core
version: 1
installed: true

package: ftp
version: 3
installed: true

package: hdparm
version: 1
installed: true

package: libgnomevfs2-extra
version: 3
installed: true

package: libbind9-50
version: 1
installed: true

package: base-files
version: 11
installed: true

package: xserver-xorg-video-i128
version: 1
installed: true

package: libbind9-40
version: 1
installed: true

package: geoclue-manual
version: 1
installed: true

package: gir1.0-freedesktop
version: 2
installed: true

package: libopencore-amrnb0
version: 1
installed: true

package: gtk2-engines-pixbuf
version: 1
installed: true

package: ttf-freefont
version: 2
installed: true

package: xsltproc
version: 5
installed: true

package: evince
version: 4
installed: true

package: hibernate
version: 1
installed: true

package: python-gtkmozembed
version: 3
installed: true

package: libgnomekbd-common
version: 2
installed: true

package: libsoup2.4-1
version: 14
installed: true

package: libvte9
version: 5
installed: true

package: x11proto-damage-dev
version: 2
installed: true

package: evolution-common
version: 1
installed: true

package: bzip2
version: 4
installed: true

package: xulrunner-1.9.1-gnome-support
version: 1
installed: true

package: gimp-data
version: 3
installed: true

package: libesd0
version: 3
installed: true

package: libdbus-qt-1-1c2
version: 2
installed: true

package: manpages
version: 3
installed: true

package: ntfs-3g
version: 1
installed: true

package: libnm-util1
version: 3
installed: true

package: libsdl1.2debian-alsa
version: 1
installed: true

package: metacity
version: 6
installed: true

package: libgnome-desktop-2-11
version: 1
installed: true

package: libcupscgi1
version: 1
installed: true

package: gconf2-common
version: 3
installed: true

package: python-glade2
version: 20
installed: true

package: libpolkit-gobject-1-0
version: 3
installed: true

package: patch
version: 3
installed: true

package: python-gdbm
version: 2
installed: true

package: linux-sound-base
version: 2
installed: true

package: libglib2-ruby1.8
version: 1
installed: true

package: libbluetooth3
version: 3
installed: true

package: gnome-panel
version: 11
installed: true

package: maxima
version: 2
installed: true

package: python-gobject
version: 23
installed: true

package: os-prober
version: 2
installed: true

package: espeak
version: 1
installed: true

package: libxv1
version: 1
installed: true

package: libnautilus-extension1
version: 4
installed: true

package: eog
version: 3
installed: true

package: python-nevow
version: 3
installed: true

package: xserver-xorg-input-synaptics
version: 2
installed: true

package: libxt6
version: 1
installed: true

package: libgtkhtml3.14-19
version: 4
installed: true

package: libxml-sax-expat-perl
version: 1
installed: true

package: ttf-liberation
version: 1
installed: true

package: libecal1.2-7
version: 6
installed: true

package: maxima-emacs
version: 1
installed: true

package: libhal-storage1
version: 3
installed: true

package: freeglut3
version: 1
installed: true

package: libgnome2-0
version: 7
installed: true

package: libxcursor-dev
version: 1
installed: true

package: metacity-common
version: 4
installed: true

package: vcdimager
version: 2
installed: true

package: liblouis0
version: 1
installed: true

package: libxxf86dga1
version: 1
installed: true

package: libxp6
version: 1
installed: true

package: fontconfig
version: 5
installed: true

package: python-louis
version: 2
installed: true

package: libxtrap6
version: 1
installed: true

package: libsidplay1
version: 2
installed: true

package: grub-common
version: 5
installed: true

package: libtelepathy-farsight0
version: 2
installed: true

package: python2.6
version: 6
installed: true

package: libpciaccess0
version: 5
installed: true

package: libart2-ruby1.8
version: 1
installed: true

package: gir1.0-clutter-1.0
version: 1
installed: true

package: gstreamer0.10-ffmpeg
version: 2
installed: true

package: ooobasis3.1-ooolinguistic
version: 1
installed: true

package: libxft-dev
version: 2
installed: true

package: xfonts-utils
version: 2
installed: true

package: libavahi-compat-libdnssd1
version: 2
installed: true

package: x11-utils
version: 1
installed: true

package: python-apt
version: 6
installed: true

package: libcairo2-dev
version: 7
installed: true

package: libxi-dev
version: 3
installed: true

package: libofa0
version: 2
installed: true

package: libqt4-xml
version: 6
installed: true

package: libbonoboui2-common
version: 4
installed: true

package: consolekit
version: 3
installed: true

package: libsmbios2
version: 1
installed: true

package: libvlc2
version: 3
installed: true

package: libavformat52
version: 3
installed: true

package: librasqal2
version: 2
installed: true

package: python-gst0.10
version: 10
installed: true

package: libsigc++-2.0-0c2a
version: 2
installed: true

package: dvd+rw-tools
version: 1
installed: true

package: debian-archive-keyring
version: 1
installed: true

package: ooobasis3.1-es
version: 1
installed: true

package: liblapack3gf
version: 1
installed: true

package: libpango1.0-common
version: 2
installed: true

package: libupnp3
version: 2
installed: true

package: libpango1.0-dev
version: 8
installed: true

package: usplash
version: 3
installed: true

package: gdm-themes
version: 1
installed: true

package: glgo
version: 1
installed: true

package: libmad0
version: 3
installed: true

package: g++-4.4
version: 2
installed: true

package: g++-4.3
version: 2
installed: true

package: x11proto-render-dev
version: 2
installed: true

package: libxcb-aux0
version: 3
installed: true

package: libempathy-common
version: 1
installed: true

package: coreutils
version: 15
installed: true

package: telepathy-gabble
version: 2
installed: true

package: libdirectfb-1.2-0
version: 1
installed: true

package: gnome-accessibility
version: 1
installed: true

package: clamtk
version: 1
installed: true

package: libwpd8c2a
version: 1
installed: true

package: oss-compat
version: 1
installed: true

package: libcanberra-gtk-module
version: 1
installed: true

package: libwxgtk2.8-0
version: 3
installed: true

package: libavutil49
version: 3
installed: true

package: libtelepathy-glib0
version: 13
installed: true

package: libcdio7
version: 1
installed: true

package: python-pyorbit
version: 3
installed: true

package: libfont-freetype-perl
version: 1
installed: true

package: libkate1
version: 3
installed: true

package: libglibmm-2.4-1c2a
version: 6
installed: true

package: libglib-perl
version: 12
installed: true

package: gnome-desktop-environment
version: 1
installed: true

package: libfile-find-rule-perl
version: 6
installed: true

package: libxml2
version: 16
installed: true

package: libhtml-tagset-perl
version: 3
installed: true

package: libevince1
version: 2
installed: true

package: librasqal1
version: 1
installed: true

package: libcupsimage2
version: 3
installed: true

package: libgnome-media0
version: 1
installed: true

package: libnewt0.52
version: 2
installed: true

package: libepc-ui-1.0-1
version: 1
installed: true

package: libgnome-window-settings1
version: 2
installed: true

package: libaudiofile0
version: 2
installed: true

package: ttf-lyx
version: 1
installed: true

package: libmusicbrainz4c2a
version: 2
installed: true

package: vim-tiny
version: 1
installed: true

package: defoma
version: 8
installed: true

package: xserver-xorg-video-mga
version: 1
installed: true

package: libutempter0
version: 1
installed: true

package: gnome-js-common
version: 1
installed: true

package: dbus-x11
version: 2
installed: true

package: python
version: 20
installed: true

package: apt
version: 15
installed: true

package: libgsf-1-common
version: 1
installed: true

package: bind9-host
version: 1
installed: true

package: xfonts-encodings
version: 2
installed: true

package: acpi-support
version: 2
installed: true

package: libcryptui0
version: 1
installed: true

package: libklibc
version: 1
installed: true

package: libopal-2.2
version: 2
installed: true

package: libgnomevfs2-0
version: 8
installed: true

package: hal-info
version: 2
installed: true

package: libxtst6
version: 1
installed: true

package: dhcp3-common
version: 1
installed: true

package: dansguardian
version: 1
installed: true

package: gnome-pilot-conduits
version: 2
installed: true

package: libxine1-x
version: 2
installed: true

package: flashplugin-nonfree
version: 1
installed: true

package: libxmu6
version: 2
installed: true

package: inkscape
version: 2
installed: true

package: keyboard-configuration
version: 1
installed: true

package: libgnomecanvas2-common
version: 2
installed: true

package: tzdata
version: 3
installed: true

package: twm
version: 2
installed: true

package: cpufrequtils
version: 1
installed: true

package: less
version: 1
installed: true

package: libxine1-console
version: 1
installed: true

package: gnome-backgrounds
version: 2
installed: true

package: libtag1-vanilla
version: 1
installed: true

package: libgutenprint2
version: 2
installed: true

package: openoffice.org3-calc
version: 1
installed: true

package: texinfo
version: 5
installed: true

package: libdirectfb-1.0-0
version: 1
installed: true

package: liblqr-1-0
version: 4
installed: true

package: amsn-data
version: 2
installed: true

package: grep
version: 5
installed: true

package: gedit-common
version: 4
installed: true

package: portmap
version: 1
installed: true

package: netcat-traditional
version: 2
installed: true

package: libunique-1.0-0
version: 3
installed: true

package: libxfixes3
version: 2
installed: true

package: openssh-client
version: 5
installed: true

package: rsyslog
version: 2
installed: true

package: libatk1-ruby1.8
version: 1
installed: true

package: texlive-latex-base-doc
version: 2
installed: true

package: laptop-detect
version: 1
installed: true

package: ghostscript
version: 6
installed: true

package: w3m
version: 2
installed: true

package: libpcre3
version: 5
installed: true

package: libpostproc51
version: 2
installed: true

package: obexd-client
version: 1
installed: true

package: aggregate
version: 1
installed: true

package: dpkg-dev
version: 17
installed: true

package: libgnutls26
version: 5
installed: true

package: libpopt0
version: 5
installed: true

package: libclutter-cairo-0.8-0
version: 1
installed: true

package: libpam0g
version: 5
installed: true

package: xserver-xephyr
version: 1
installed: true

package: libxinerama-dev
version: 3
installed: true

package: rarian-compat
version: 1
installed: true

package: vinagre
version: 2
installed: true

package: libpam-gnome-keyring
version: 2
installed: true

package: libqt4-sql
version: 7
installed: true

package: libusb-0.1-4
version: 2
installed: true

package: libept0
version: 4
installed: true

package: libtiff4
version: 2
installed: true

package: libapache2-mod-dnssd
version: 2
installed: true

package: empathy
version: 3
installed: true

package: libtar
version: 1
installed: true

package: libquicktime1
version: 4
installed: true

package: ocsinventory-agent
version: 1
installed: true

package: libtdb1
version: 4
installed: true

package: libtidy-0.99-0
version: 3
installed: true

package: libwmf-bin
version: 1
installed: true

package: libid3tag0
version: 2
installed: true

package: libpixman-1-0
version: 5
installed: true

package: xserver-xorg-video-s3
version: 1
installed: true

package: libxxf86misc1
version: 1
installed: true

package: libgegl-0.0-0
version: 1
installed: true

package: xserver-xorg-video-nv
version: 1
installed: true

package: obex-data-server
version: 2
installed: true

package: policykit-gnome
version: 1
installed: true

package: libavahi-common3
version: 4
installed: true

package: gconf-defaults-service
version: 2
installed: true

package: libnss3-1d
version: 6
installed: true

package: openoffice.org3-writer
version: 1
installed: true

package: festival
version: 4
installed: true

package: gedit
version: 4
installed: true

package: xserver-xorg-video-tseng
version: 1
installed: true

package: libmozjs2d
version: 3
installed: true

package: libsm6
version: 1
installed: true

package: libgs8
version: 3
installed: true

package: libice-dev
version: 4
installed: true

package: libgeoip1
version: 5
installed: true

package: ooobasis3.1-es-binfilter
version: 1
installed: true

package: gstreamer0.10-nice
version: 1
installed: true

package: console-tools
version: 5
installed: true

package: bash
version: 18
installed: true

package: libgnome2-canvas-perl
version: 3
installed: true

package: libpolkit-gnome0
version: 2
installed: true

package: libslp1
version: 1
installed: true

package: gnome-bluetooth
version: 2
installed: true

package: tex-common
version: 9
installed: true

package: libtasn1-3
version: 3
installed: true

package: libpolkit-grant2
version: 2
installed: true

package: libfontconfig1-dev
version: 2
installed: true

package: tsconf
version: 1
installed: true

package: cpp-4.4
version: 2
installed: true

package: libxfixes-dev
version: 3
installed: true

package: telnet
version: 2
installed: true

package: libclutter-1.0-0
version: 2
installed: true

package: gnome-orca
version: 2
installed: true

package: libgtkimageview0
version: 2
installed: true

package: libgdu-gtk0
version: 3
installed: true

package: libqt4-opengl
version: 5
installed: true

package: libgpm2
version: 2
installed: true

package: swfdec-gnome
version: 2
installed: true

package: totem-mozilla
version: 2
installed: true

package: gnome-nettool
version: 2
installed: true

package: klibc-utils
version: 3
installed: true

package: sysvinit-utils
version: 5
installed: true

package: libvolume-id0
version: 1
installed: true

package: libpthread-stubs0-dev
version: 1
installed: true

package: libjpeg62
version: 1
installed: true

package: libts-0.0-0
version: 3
installed: true

package: nautilus-actions
version: 2
installed: true

package: xserver-xorg-video-siliconmotion
version: 1
installed: true

package: libical0
version: 5
installed: true

package: xserver-xorg-input-all
version: 1
installed: true

package: xulrunner-1.9.1
version: 2
installed: true

package: libxcb-atom1
version: 3
installed: true

package: libmozjs1d
version: 2
installed: true

package: libxext-dev
version: 5
installed: true

package: libhtml-tree-perl
version: 5
installed: true

package: libmpeg3-dev
version: 1
installed: true

package: libqt4-svg
version: 5
installed: true

package: cdrdao
version: 2
installed: true

package: gstreamer0.10-x
version: 1
installed: true

package: libwebkit-1.0-2
version: 8
installed: true

package: python-imaging
version: 7
installed: true

package: totem-coherence
version: 1
installed: true

package: pciutils
version: 4
installed: true

package: libconsole
version: 1
installed: true

package: ooobasis3.1-pyuno
version: 1
installed: true

package: libneon27-gnutls
version: 3
installed: true

package: gnome-randr-applet
version: 1
installed: true

package: libiptcdata0
version: 1
installed: true

package: gnome-desktop-data
version: 4
installed: true

package: libgnome2-common
version: 2
installed: true

package: libxcb-xv0
version: 2
installed: true

package: hunspell-en-us
version: 2
installed: true

package: libmodplug0c2
version: 2
installed: true

package: libavahi-common-data
version: 2
installed: true

package: libgraphviz4
version: 2
installed: true

package: notification-daemon
version: 1
installed: true

package: liblocale-gettext-perl
version: 3
installed: true

package: rss-glx
version: 1
installed: true

package: libpstoedit0c2a
version: 2
installed: true

package: libgnomevfs2-common
version: 6
installed: true

package: libcelt0
version: 3
installed: true

package: python-cairo
version: 12
installed: true

package: libcddb2
version: 1
installed: true

package: modemmanager
version: 1
installed: true

package: ooobasis3.1-math
version: 1
installed: true

package: libdb4.8
version: 1
installed: true

package: libdb4.7
version: 1
installed: true

package: libdb4.6
version: 1
installed: true

package: libdrm-intel1
version: 5
installed: true

package: geoclue
version: 2
installed: true

package: esound-common
version: 1
installed: true

package: libxrandr2
version: 6
installed: true

package: gnome-applets-data
version: 3
installed: true

package: libaspell15
version: 2
installed: true

package: texlive-latex-base
version: 4
installed: true

package: libchamplain-0.4-0
version: 4
installed: true

package: libbsd0
version: 2
installed: true

package: odbcinst
version: 1
installed: true

package: ispell
version: 3
installed: true

package: dmidecode
version: 3
installed: true

package: zlib1g
version: 10
installed: true

package: libxfont1
version: 2
installed: true

package: hamster-applet
version: 2
installed: true

package: fast-user-switch-applet
version: 3
installed: true

package: libkrb5support0
version: 3
installed: true

package: libgksuui1.0-1
version: 1
installed: true

package: libmetacity-private0
version: 2
installed: true

package: gnome-power-manager
version: 3
installed: true

package: xserver-xorg-video-tdfx
version: 1
installed: true

package: libchamplain-gtk-0.4-0
version: 2
installed: true

package: ooobasis3.1-graphicfilter
version: 1
installed: true

package: libnfsidmap2
version: 1
installed: true

package: gnome-session-bin
version: 1
installed: true

package: libslab0a
version: 3
installed: true

package: libpthread-stubs0
version: 1
installed: true

package: libgnome-speech7
version: 2
installed: true

package: python-pyatspi
version: 3
installed: true

package: gnuplot-x11
version: 1
installed: true

package: libavc1394-0
version: 3
installed: true

package: libdvbpsi5
version: 1
installed: true

package: xserver-xorg-video-radeon
version: 1
installed: true

package: libcdio-cdda0
version: 1
installed: true

package: install-info
version: 1
installed: true

package: eject
version: 2
installed: true

package: module-init-tools
version: 7
installed: true

package: libggzcore9
version: 2
installed: true

package: libxcb-shape0
version: 2
installed: true

package: libbrlapi0.5
version: 1
installed: true

package: libgc1c2
version: 2
installed: true

package: libogg0
version: 5
installed: true

package: gvfs-bin
version: 2
installed: true

package: libnm-glib2
version: 2
installed: true

package: liborbit2
version: 4
installed: true

package: radeontool
version: 1
installed: true

package: openoffice.org3-dict-pt
version: 1
installed: true

package: libgalago3
version: 1
installed: true

package: x11proto-randr-dev
version: 3
installed: true

package: bsd-mailx
version: 2
installed: true

package: wamerican
version: 1
installed: true

package: libpixman-1-dev
version: 3
installed: true

package: libcap2
version: 3
installed: true

package: libnice0
version: 3
installed: true

package: ooobasis3.1-ooofonts
version: 1
installed: true

package: gnome-core
version: 2
installed: true

package: libelf1
version: 4
installed: true

package: xserver-xorg-video-r128
version: 1
installed: true

package: libx11-dev
version: 6
installed: true

package: libgsm1
version: 4
installed: true

package: phonon-backend-xine
version: 2
installed: true

package: libpt2.6.5-plugins
version: 1
installed: true

package: libepc-ui-1.0-2
version: 2
installed: true

package: libpolkit-backend-1-0
version: 2
installed: true

package: libtext-charwidth-perl
version: 1
installed: true

package: libgme0
version: 2
installed: true

package: libiw30
version: 2
installed: true

package: gconf-editor
version: 2
installed: true

package: libiw29
version: 2
installed: true

package: clamav-base
version: 1
installed: true

package: openoffice.org3-dict-fr
version: 1
installed: true

package: openoffice.org3-dict-es
version: 1
installed: true

package: librpcsecgss3
version: 1
installed: true

package: openoffice.org3-dict-en
version: 1
installed: true

package: libxres1
version: 1
installed: true

package: python-gnome2
version: 15
installed: true

package: libopenjpeg2
version: 1
installed: true

package: ucf
version: 16
installed: true

package: libgsf-1-114
version: 8
installed: true

package: gnome-keyring
version: 2
installed: true

package: gnome-splashscreen-manager
version: 1
installed: true

package: libxslt1.1
version: 6
installed: true

package: libatspi1.0-0
version: 4
installed: true

package: geoclue-hostip
version: 1
installed: true

package: python-software-properties
version: 1
installed: true

package: libcairo-perl
version: 4
installed: true

package: bogofilter
version: 2
installed: true

package: ooobasis3.1-es-res
version: 1
installed: true

package: libt1-5
version: 3
installed: true

package: texlive-binaries
version: 3
installed: true

package: libc-bin
version: 1
installed: true

package: libjpeg62-dev
version: 2
installed: true

package: gtk2-engines-smooth
version: 1
installed: true

package: libxft2
version: 2
installed: true

package: locales
version: 6
installed: true

package: gnome-control-center
version: 9
installed: true

package: gcc-4.2-base
version: 1
installed: true

package: gsfonts-x11
version: 2
installed: true

package: libisc50
version: 1
installed: true

package: libssl0.9.8
version: 9
installed: true

package: libisc45
version: 1
installed: true

package: libglc0
version: 2
installed: true

package: libgupnp-igd-1.0-2
version: 2
installed: true

package: openssh-server
version: 2
installed: true

package: libdirac-encoder0
version: 1
installed: true

package: libsys-hostname-long-perl
version: 1
installed: true

package: logrotate
version: 6
installed: true

package: libpango-perl
version: 3
installed: true

package: acpi-support-base
version: 3
installed: true

package: libopal3.6.6
version: 1
installed: true

package: libldap-2.4-2
version: 2
installed: true

package: libgnome-desktop-2
version: 3
installed: true

package: libxcb-render0
version: 2
installed: true

package: libtalloc2
version: 2
installed: true

package: python2.5-minimal
version: 3
installed: true

package: gnome-doc-utils
version: 3
installed: true

package: libcairomm-1.0-1
version: 4
installed: true

package: libgtksourceview2.0-0
version: 5
installed: true

package: python-axiom
version: 1
installed: true

package: libusplash0
version: 2
installed: true

package: nfs-common
version: 1
installed: true

package: pm-utils
version: 1
installed: true

package: libpolkit-gtk-1-0
version: 2
installed: true

package: libvorbisfile3
version: 5
installed: true

package: libgail-common
version: 3
installed: true

package: librpmio0
version: 3
installed: true

package: libhal1
version: 5
installed: true

package: python-feedparser
version: 3
installed: true

package: libdirectfb-dev
version: 3
installed: true

package: pmount
version: 1
installed: true

package: menu
version: 14
installed: true

package: udev
version: 21
installed: true

package: file-roller
version: 3
installed: true

package: ncurses-bin
version: 1
installed: true

package: libao2
version: 3
installed: true

package: p7zip-full
version: 1
installed: true

package: network-manager-gnome
version: 4
installed: true

package: emesene
version: 1
installed: true

package: libgl1-mesa-dri
version: 4
installed: true

package: festlex-poslex
version: 3
installed: true

package: libxine1-ffmpeg
version: 2
installed: true

package: pkg-config
version: 6
installed: true

package: python-louie
version: 1
installed: true

package: libedata-book1.2-2
version: 4
installed: true

package: libatk1.0-0
version: 10
installed: true

package: ooobasis3.1-javafilter
version: 1
installed: true

package: python-opengl
version: 2
installed: true

package: gnome-about
version: 4
installed: true

package: gcalctool
version: 2
installed: true

package: libxdamage1
version: 2
installed: true

package: kdelibs4c2a
version: 10
installed: true

package: libcupsdriver1
version: 2
installed: true

package: libwildmidi0
version: 1
installed: true

package: cpp-4.3
version: 4
installed: true

package: libgtop2-common
version: 1
installed: true

package: libgphoto2-port0
version: 3
installed: true

package: libxau6
version: 1
installed: true

package: libgail-gnome-module
version: 2
installed: true

package: libtalloc1
version: 1
installed: true

package: libfile-copy-recursive-perl
version: 2
installed: true

package: seahorse-plugins
version: 4
installed: true

package: poppler-utils
version: 2
installed: true

package: libdatrie1
version: 2
installed: true

package: hal
version: 7
installed: true

package: debconf-i18n
version: 1
installed: true

package: libglade2-0
version: 6
installed: true

package: gnupg
version: 9
installed: true

package: rpm-common
version: 1
installed: true

package: libvorbisenc2
version: 2
installed: true

package: libdbus-glib-1-2
version: 5
installed: true

package: procmail
version: 1
installed: true

package: dialog
version: 5
installed: true

package: libnss-mdns
version: 1
installed: true

package: xawtv-plugins
version: 1
installed: true

package: libxcb-event1
version: 3
installed: true

package: libxml-namespacesupport-perl
version: 3
installed: true

package: python-twisted-core
version: 7
installed: true

package: libavahi-glib1
version: 3
installed: true

package: libhunspell-1.2-0
version: 3
installed: true

package: libopenobex1
version: 1
installed: true

package: libxcb-shm0
version: 2
installed: true

package: rsync
version: 4
installed: true

package: libxapian15
version: 1
installed: true

package: festlex-cmu
version: 3
installed: true

package: info
version: 4
installed: true

package: tinyproxy
version: 1
installed: true

package: e2fsprogs
version: 4
installed: true

package: libjack0
version: 6
installed: true

package: libarts1c2a
version: 3
installed: true

package: libgphoto2-2
version: 3
installed: true

package: libbz2-1.0
version: 1
installed: true

package: libraptor1
version: 3
installed: true

package: raptor-utils
version: 1
installed: true

package: libsdl-ttf2.0-0
version: 1
installed: true

package: libsvga1
version: 1
installed: true

package: gnome-utils
version: 5
installed: true

package: libxdamage-dev
version: 3
installed: true

package: gnome-netstatus-applet
version: 2
installed: true

package: libgssdp-1.0-2
version: 3
installed: true

package: perl-modules
version: 14
installed: true

package: libc6
version: 36
installed: true

package: openoffice.org3-draw
version: 1
installed: true

package: gnome-media
version: 3
installed: true

package: libwww-perl
version: 20
installed: true

package: openoffice.org-l10n-es
version: 1
installed: true

package: ghostscript-cups
version: 1
installed: true

package: libfontenc1
version: 1
installed: true

package: libvisual-0.4-0
version: 2
installed: true

package: emacs22-bin-common
version: 1
installed: true

package: xserver-xorg-input-mouse
version: 1
installed: true

package: xbindkeys
version: 1
installed: true

package: libiec61883-0
version: 3
installed: true

package: xserver-xorg-video-mach64
version: 1
installed: true

package: insserv
version: 2
installed: true

package: gnome-session
version: 7
installed: true

package: xserver-xorg-video-vesa
version: 1
installed: true

package: xulrunner-1.9
version: 3
installed: true

package: xserver-xorg-video-ark
version: 1
installed: true

package: gnome-disk-utility
version: 2
installed: true

package: libpango1-ruby1.8
version: 1
installed: true

package: epiphany-browser-data
version: 4
installed: true

package: xserver-xorg-video-apm
version: 1
installed: true

package: xserver-xorg-video-vmware
version: 1
installed: true

package: gnome-session-common
version: 1
installed: true

package: libsexy2
version: 2
installed: true

package: libexchange-storage1.2-3
version: 3
installed: true

package: libnet-dbus-perl
version: 2
installed: true

package: libcupsppdc1
version: 2
installed: true

package: libv4l-0
version: 2
installed: true

package: texlive-latex3
version: 3
installed: true

package: xserver-xorg-video-all
version: 1
installed: true

package: libgweather1
version: 3
installed: true

package: libggz2
version: 2
installed: true

package: python-zope.interface
version: 2
installed: true

package: evolution
version: 7
installed: true

package: liblua5.1-0
version: 1
installed: true

package: iputils-ping
version: 2
installed: true

package: tasksel
version: 3
installed: true

package: sysvinit
version: 6
installed: true

package: backintime-common
version: 1
installed: true

package: gnome-panel-data
version: 6
installed: true

package: x11proto-fixes-dev
version: 2
installed: true

package: librarian0
version: 2
installed: true

package: libflac8
version: 2
installed: true

package: libpolkit2
version: 3
installed: true

package: x11-session-utils
version: 1
installed: true

package: unattended-upgrades
version: 1
installed: true

package: libkpathsea5
version: 1
installed: true

package: libkpathsea4
version: 1
installed: true

package: libxdmcp6
version: 1
installed: true

package: ooobasis3.1-es-math
version: 1
installed: true

package: debconf
version: 30
installed: true

package: alsa-base
version: 4
installed: true

package: libguile-ltdl-1
version: 1
installed: true

package: libaprutil1-dbd-sqlite3
version: 1
installed: true

package: libbabl-0.0-0
version: 1
installed: true

package: libpth20
version: 2
installed: true

package: aptitude
version: 3
installed: true

package: libpng12-dev
version: 4
installed: true

package: libbonobo2-0
version: 6
installed: true

package: nano
version: 1
installed: true

package: libgdata1.2-1
version: 2
installed: true

package: libstartup-notification0
version: 3
installed: true

package: dnsmasq-base
version: 2
installed: true

package: libxaw7
version: 2
installed: true

package: libatk1.0-data
version: 2
installed: true

package: libxcomposite1
version: 2
installed: true

package: libwbclient0
version: 2
installed: true

package: xserver-xorg-input-wacom
version: 2
installed: true

package: perl-base
version: 18
installed: true

package: libxcomposite-dev
version: 3
installed: true

package: libreadline5
version: 4
installed: true

package: python-brlapi
version: 1
installed: true

package: cdparanoia
version: 2
installed: true

package: libxine1
version: 6
installed: true

package: dmz-cursor-theme
version: 1
installed: true

package: libgdk-pixbuf2-ruby1.8
version: 1
installed: true

package: libbonoboui2-0
version: 4
installed: true

package: laptop-mode-tools
version: 1
installed: true

package: libcdio-paranoia0
version: 1
installed: true

package: libvte-common
version: 1
installed: true

package: ooobasis3.1-es-help
version: 1
installed: true

package: libglu1-mesa
version: 1
installed: true

package: libxrender-dev
version: 3
installed: true

package: libmagickcore2-extra
version: 1
installed: true

package: libgdata6
version: 1
installed: true

package: libflac++6
version: 2
installed: true

package: linux-image-2.6.32.8
version: 1
installed: true

package: kaboom
version: 2
installed: true

package: gnome-cards-data
version: 4
installed: true

package: python-notify
version: 3
installed: true

package: ncurses-term
version: 1
installed: true

package: libqtgui4
version: 6
installed: true

package: gnupg-curl
version: 1
installed: true

package: mutt
version: 2
installed: true

package: mesa-utils
version: 1
installed: true

package: html2text
version: 1
installed: true

package: libvorbis0a
version: 5
installed: true

package: python-central
version: 13
installed: true

package: libopenspc0
version: 1
installed: true

package: libvoikko1
version: 4
installed: true

package: libdate-calc-perl
version: 1
installed: true

package: busybox
version: 3
installed: true

package: libclutter-gtk-0.8-0
version: 1
installed: true

package: java-common
version: 4
installed: true

package: python-reportbug
version: 1
installed: true

package: python-libxml2
version: 2
installed: true

package: gimp
version: 7
installed: true

package: ooobasis3.1-calc
version: 1
installed: true

package: xserver-xorg-video-openchrome
version: 1
installed: true

package: exiv2
version: 1
installed: true

package: net-tools
version: 1
installed: true

package: cpad-common
version: 1
installed: true

package: libgp11-0
version: 2
installed: true

package: libgif4
version: 3
installed: true

package: login
version: 2
installed: true

package: policykit
version: 2
installed: true

package: libglew1.5
version: 3
installed: true

package: libisccc50
version: 1
installed: true

package: backintime-gnome
version: 1
installed: true

package: empathy-doc
version: 1
installed: true

package: xserver-xorg-video-glint
version: 1
installed: true

package: libisccc40
version: 1
installed: true

package: libglade2-ruby1.8
version: 1
installed: true

package: libavcodec52
version: 3
installed: true

package: openbsd-inetd
version: 2
installed: true

package: libgnomecups1.0-1
version: 2
installed: true

package: libx11-data
version: 1
installed: true

package: libjasper1
version: 2
installed: true

package: xserver-xorg-video-s3virge
version: 1
installed: true

package: gnome-art
version: 1
installed: true

package: libgdata-common
version: 1
installed: true

package: gok
version: 2
installed: true

package: tk8.5
version: 3
installed: true

package: exim4
version: 1
installed: true

package: libswfdec-0.6-90
version: 1
installed: true

package: iproute
version: 3
installed: true

package: dpkg
version: 27
installed: true

package: libgnomeui-common
version: 2
installed: true

package: libdmx1
version: 1
installed: true

package: man-db
version: 7
installed: true

package: python-httplib2
version: 3
installed: true

package: ooobasis3.1-es-writer
version: 1
installed: true

package: libcwidget3
version: 1
installed: true

package: xserver-xorg-video-dummy
version: 1
installed: true

package: libgdata-google1.2-1
version: 2
installed: true

package: exim4-daemon-light
version: 3
installed: true

package: libkrb53
version: 3
installed: true

package: ifupdown
version: 7
installed: true

package: libslang2
version: 6
installed: true

package: libcups2
version: 3
installed: true

package: libqimageblitz4
version: 1
installed: true

package: policykit-1
version: 1
installed: true

package: libxvmc1
version: 1
installed: true

package: libdigest-sha1-perl
version: 5
installed: true

package: liboobs-1-4
version: 1
installed: true

package: synaptic
version: 4
installed: true

package: libexpat1-dev
version: 2
installed: true

package: libcdparanoia0
version: 2
installed: true

package: python-twisted-web
version: 4
installed: true

package: gnome-user-guide
version: 2
installed: true

package: x11proto-xinerama-dev
version: 2
installed: true

package: libijs-0.35
version: 1
installed: true

package: capplets-data
version: 4
installed: true

package: alsa-utils
version: 2
installed: true

package: xserver-xorg-video-intel
version: 1
installed: true

package: liblcms1
version: 3
installed: true

package: libdevkit-power-gobject1
version: 3
installed: true

package: mobile-broadband-provider-info
version: 1
installed: true

package: libsysfs2
version: 1
installed: true

package: sun-java6-jre
version: 1
installed: true

package: libplot2c2
version: 1
installed: true

package: groff-base
version: 3
installed: true

package: x-ttcidfont-conf
version: 4
installed: true

package: libxml-xpathengine-perl
version: 3
installed: true

package: libnumber-compare-perl
version: 1
installed: true

package: console-common
version: 4
installed: true

package: libcanberra0
version: 4
installed: true

package: libpam-runtime
version: 6
installed: true

package: gqview
version: 2
installed: true

package: libfs6
version: 1
installed: true

package: xserver-xorg-input-evdev
version: 1
installed: true

package: tasksel-data
version: 1
installed: true

package: python-dbus
version: 12
installed: true

package: diff
version: 2
installed: true

package: libgai0
version: 1
installed: true

package: libenca0
version: 2
installed: true

package: gksu
version: 9
installed: true

package: iptables
version: 10
installed: true

package: libgstreamer0.10-0
version: 21
installed: true

package: blender
version: 1
installed: true

package: xinit
version: 1
installed: true

package: libraw1394-11
version: 1
installed: true

package: python-sexy
version: 1
installed: true

package: ggzcore-bin
version: 3
installed: true

package: x11proto-core-dev
version: 3
installed: true

package: iso-codes
version: 1
installed: true

package: vim-common
version: 4
installed: true

package: linux-source-2.6.30rxart+exomate.1.2
version: 1
installed: true

package: libnm-glib-vpn0
version: 1
installed: true

package: libxml-simple-perl
version: 3
installed: true

package: libgtk-vnc-1.0-0
version: 4
installed: true

package: libgnomekbd4
version: 1
installed: true

package: libmail-sendmail-perl
version: 2
installed: true

package: libgcr0
version: 2
installed: true

package: libepc-1.0-2
version: 2
installed: true

package: libepc-1.0-1
version: 2
installed: true

package: libcairo2
version: 20
installed: true

package: xml-core
version: 3
installed: true

package: xserver-xorg-video-rendition
version: 1
installed: true

package: libwavpack1
version: 4
installed: true

package: m4
version: 3
installed: true

package: liblwres50
version: 1
installed: true

package: liblwres40
version: 1
installed: true

package: gs
version: 3
installed: true

package: libncurses5-dev
version: 1
installed: true

package: libgfortran3
version: 3
installed: true

package: exiftran
version: 1
installed: true

package: mousetweaks
version: 2
installed: true

package: libqt4-network
version: 6
installed: true

package: vlc-data
version: 1
installed: true

package: libgconf2-ruby1.8
version: 1
installed: true

package: libqt4-dbus
version: 5
installed: true

package: librsync1
version: 2
installed: true

package: gnuchess-book
version: 1
installed: true

package: imagemagick
version: 9
installed: true

package: xserver-xorg-video-radeonhd
version: 1
installed: true

package: sound-juicer
version: 2
installed: true

package: xserver-xorg-core
version: 5
installed: true

package: nautilus-data
version: 2
installed: true

package: xfonts-75dpi
version: 3
installed: true

package: libtwolame0
version: 1
installed: true

package: libedit2
version: 2
installed: true

package: italc-client
version: 1
installed: true

package: groff
version: 4
installed: true

package: libsdl1.2debian
version: 6
installed: true

package: sensible-utils
version: 1
installed: true

package: initscripts
version: 6
installed: true

package: libpam-modules
version: 6
installed: true

package: libdv4
version: 1
installed: true

package: libgtkhtml-editor0
version: 2
installed: true

package: libxml2-utils
version: 3
installed: true

package: build-essential
version: 2
installed: true

package: guile-1.8-libs
version: 1
installed: true

package: libart-2.0-2
version: 3
installed: true

package: libxkbfile1
version: 1
installed: true

package: libmatroska0
version: 1
installed: true

package: libgnome-keyring0
version: 10
installed: true

package: gv
version: 2
installed: true

package: libavahi-gobject0
version: 2
installed: true

package: policykit-1-gnome
version: 1
installed: true

package: libc-dev-bin
version: 1
installed: true

package: ufraw
version: 1
installed: true

package: redland-utils
version: 1
installed: true

package: libsdl-image1.2
version: 4
installed: true

package: python-gnomedesktop
version: 1
installed: true

package: python-gnupginterface
version: 1
installed: true

package: sdparm
version: 1
installed: true

package: bluez
version: 5
installed: true

package: geoclue-localnet
version: 1
installed: true

package: libswscale0
version: 3
installed: true

package: libmalaga7
version: 1
installed: true

package: bsdutils
version: 6
installed: true

package: vlc-plugin-pulse
version: 1
installed: true

package: cvs
version: 2
installed: true

package: libopenal1
version: 2
installed: true

package: libnetpbm10
version: 1
installed: true

package: libxcb1
version: 4
installed: true

package: gvfs-backends
version: 3
installed: true

package: grub-pc
version: 2
installed: true

package: x11-apps
version: 1
installed: true

package: cpp
version: 2
installed: true

package: app-install-data
version: 2
installed: true

package: libgnome2-ruby
version: 3
installed: true

package: mc
version: 1
installed: true

package: libpango1.0-0
version: 35
installed: true

package: vbetool
version: 1
installed: true

package: ncurses-base
version: 3
installed: true

package: liboil0.3
version: 7
installed: true

package: xaw3dg
version: 3
installed: true

package: gs-common
version: 4
installed: true

package: libfuse2
version: 3
installed: true

package: libhtml-parser-perl
version: 12
installed: true

package: vim
version: 1
installed: true

package: telepathy-mission-control-5
version: 1
installed: true

package: libasyncns0
version: 1
installed: true

package: xbitmaps
version: 1
installed: true

package: findutils
version: 7
installed: true

package: gnome-games-extra-data
version: 2
installed: true

package: ed
version: 1
installed: true

package: dctrl-tools
version: 1
installed: true

package: libgnome-pilot2
version: 2
installed: true

package: libbit-vector-perl
version: 3
installed: true

package: libgtk2-perl
version: 14
installed: true

package: brasero
version: 4
installed: true

package: dc
version: 1
installed: true

package: libgd2-xpm
version: 4
installed: true

package: libgtk2-ruby1.8
version: 1
installed: true

package: python-lxml
version: 4
installed: true

package: libknotificationitem-1-1
version: 2
installed: true

package: bc
version: 1
installed: true

package: libsqlite3-0
version: 15
installed: true

package: at
version: 1
installed: true

package: xserver-xorg-video-cirrus
version: 1
installed: true

package: libpangomm-1.4-1
version: 4
installed: true

package: libdb4.5
version: 2
installed: true

package: gnome-themes-extras
version: 3
installed: true

package: libcolorblind0
version: 1
installed: true

package: python-numpy
version: 7
installed: true

package: libltdl7
version: 3
installed: true

package: libthai-data
version: 2
installed: true

package: console-terminus
version: 3
installed: true

package: libloudmouth1-0
version: 3
installed: true

package: libportaudio2
version: 1
installed: true

package: libsoundtouch1c2
version: 3
installed: true

package: gir1.0-gstreamer-0.10
version: 1
installed: true

package: gnome-applets
version: 4
installed: true

package: libdrm2
version: 4
installed: true

package: libempathy30
version: 4
installed: true

package: tpconfig
version: 1
installed: true

package: texlive-base
version: 4
installed: true

package: libgssglue1
version: 1
installed: true

package: libexpat1
version: 2
installed: true

package: openoffice.org3-base
version: 1
installed: true

package: totem-common
version: 3
installed: true

package: libtotem-plparser12
version: 3
installed: true

package: libdaemon0
version: 4
installed: true

package: libidl0
version: 1
installed: true

package: libfreetype6
version: 8
installed: true

package: libgtkglext1
version: 1
installed: true

package: gnome-terminal
version: 3
installed: true

package: usbutils
version: 1
installed: true

package: xserver-xorg-video-neomagic
version: 1
installed: true

package: lockfile-progs
version: 2
installed: true

package: gnome-themes
version: 2
installed: true

package: libdvdnav4
version: 1
installed: true

package: libxi6
version: 5
installed: true

package: totem-plugins
version: 3
installed: true

package: bogofilter-common
version: 1
installed: true

package: libschroedinger-1.0-0
version: 3
installed: true

package: libgavl1
version: 2
installed: true

package: toshset
version: 1
installed: true

package: ruby
version: 7
installed: true

package: ooobasis3.1-impress
version: 1
installed: true

package: libgnomecanvas2-0
version: 5
installed: true

package: python-minimal
version: 1
installed: true

package: libempathy-gtk-common
version: 1
installed: true

package: shared-mime-info
version: 5
installed: true

package: libnspr4-0d
version: 4
installed: true

package: libsamplerate0
version: 1
installed: true

package: ca-certificates
version: 1
installed: true

package: libfftw3-3
version: 1
installed: true

package: libck-connector0
version: 2
installed: true

package: tcl-tls
version: 1
installed: true

package: gnome-terminal-data
version: 3
installed: true

package: libenchant1c2a
version: 2
installed: true

package: initramfs-tools
version: 7
installed: true

package: libfreetype6-dev
version: 6
installed: true

package: libspeexdsp1
version: 3
installed: true

package: python-rsvg
version: 1
installed: true

package: libgtk2.0-bin
version: 1
installed: true

package: gir1.0-gtk-2.0
version: 3
installed: true

package: ooobasis3.1-writer
version: 1
installed: true

package: libgpg-error0
version: 2
installed: true

package: libstreams0
version: 3
installed: true

package: libhyphen0
version: 2
installed: true

package: ssl-cert
version: 3
installed: true

package: ooobasis3.1-es-calc
version: 1
installed: true

package: libgdu0
version: 4
installed: true

package: librsvg2-common
version: 4
installed: true

package: python-mechanize
version: 2
installed: true

package: python-beautifulsoup
version: 4
installed: true

package: dhcp3-client
version: 2
installed: true

package: xulrunner-1.9-gnome-support
version: 1
installed: true

package: gnome-games
version: 5
installed: true

package: xserver-xorg-video-ati
version: 3
installed: true

package: libgucharmap6
version: 1
installed: true

package: libisccfg50
version: 1
installed: true

package: gnome-user-share
version: 2
installed: true

package: libmpfr1ldbl
version: 1
installed: true

package: libdevmapper1.02.1
version: 4
installed: true

package: libglib2.0-0
version: 38
installed: true

package: libisccfg40
version: 1
installed: true

package: liblualib50
version: 2
installed: true

package: wget
version: 3
installed: true

package: xfonts-base
version: 5
installed: true

package: libopenexr6
version: 2
installed: true

package: libjs-jquery
version: 6
installed: true

package: gnome-icon-theme
version: 17
installed: true

package: libqt3-mt
version: 7
installed: true

package: libqthreads-12
version: 1
installed: true

package: libspeex1
version: 3
installed: true

package: devicekit-power
version: 3
installed: true

package: openssh-blacklist-extra
version: 1
installed: true

package: mount
version: 6
installed: true

package: libmysqlclient15off
version: 2
installed: true

package: libxext6
version: 2
installed: true

package: libexif12
version: 1
installed: true

package: e2fslibs
version: 3
installed: true

package: clamav
version: 5
installed: true

package: gdm
version: 4
installed: true

package: x11-xserver-utils
version: 1
installed: true

package: epiphany-browser
version: 5
installed: true

package: libudev0
version: 3
installed: true

package: libpython2.6
version: 2
installed: true

package: amsn
version: 2
installed: true

package: phonon
version: 2
installed: true

package: deskbar-applet
version: 4
installed: true

package: libgnome-mag2
version: 2
installed: true

package: acpid
version: 3
installed: true

package: diffutils
version: 1
installed: true

package: python-evolution
version: 2
installed: true

package: python-gdata
version: 3
installed: true

package: python-gnomeapplet
version: 2
installed: true

package: unixodbc
version: 6
installed: true

package: libartsc0
version: 3
installed: true

package: avahi-daemon
version: 4
installed: true

package: python-wnck
version: 1
installed: true

package: lsb-release
version: 2
installed: true

package: libespeak1
version: 3
installed: true

package: icedove-l10n-es-ar
version: 1
installed: true

package: linux-image-2.6.30rxart+exomate.1.2
version: 1
installed: true

package: libgconf2-4
version: 9
installed: true

package: gettext-base
version: 3
installed: true

package: libebook1.2-9
version: 7
installed: true

package: libsoprano4
version: 7
installed: true

package: libsgutils2-2
version: 3
installed: true

package: apache2.2-bin
version: 1
installed: true

package: screenlets
version: 1
installed: true

package: perlmagick
version: 2
installed: true

package: firehol
version: 1
installed: true

package: libtimedate-perl
version: 5
installed: true

package: libtotem-plparser10
version: 1
installed: true

package: libxinerama1
version: 1
installed: true

package: manpages-es
version: 1
installed: true

package: mime-support
version: 1
installed: true

package: libsnack2-alsa
version: 1
installed: true

package: libnm-glib-vpn1
version: 2
installed: true

package: python-utidylib
version: 2
installed: true

package: libxml-parser-perl
version: 7
installed: true

package: libstdc++6-4.3-dev
version: 1
installed: true

package: libgtop2-7
version: 5
installed: true

package: libpisync1
version: 1
installed: true

package: libass4
version: 2
installed: true

package: gnome-pilot
version: 3
installed: true

package: libcairo-ruby1.8
version: 1
installed: true

package: libedataserver1.2-9
version: 3
installed: true

package: libpanel-applet2-0
version: 5
installed: true

package: python-vte
version: 5
installed: true

package: gir1.0-glib-2.0
version: 3
installed: true

package: libavahi-qt3-1
version: 2
installed: true

package: sun-java6-bin
version: 1
installed: true

package: libstlport4.6ldbl
version: 1
installed: true

package: libxcb-render0-dev
version: 1
installed: true

package: powermgmt-base
version: 1
installed: true

package: myspell-es
version: 2
installed: true

package: ooobasis3.1-draw
version: 1
installed: true

package: bash-completion
version: 2
installed: true

package: rpm2cpio
version: 1
installed: true

package: libmagickwand2
version: 2
installed: true

package: python-crypto
version: 2
installed: true

package: libavahi-core6
version: 2
installed: true

package: libpulse-mainloop-glib0
version: 1
installed: true

package: libdigest-hmac-perl
version: 1
installed: true

package: wireless-tools
version: 2
installed: true

package: libestools1.2
version: 2
installed: true

package: python-gtk2
version: 37
installed: true

package: libglib2.0-data
version: 1
installed: true

package: exim4-base
version: 6
installed: true

package: libtheora0
version: 4
installed: true

package: kdelibs-bin
version: 5
installed: true

package: xauth
version: 1
installed: true

package: tar
version: 8
installed: true

package: libegroupwise1.2-13
version: 2
installed: true

package: shermans-aquarium
version: 1
installed: true

package: libncursesw5
version: 3
installed: true

package: libice6
version: 2
installed: true

package: libexiv2-6
version: 1
installed: true

package: evolution-webcal
version: 2
installed: true

package: kdebase-runtime
version: 8
installed: true

package: libsasl2-2
version: 2
installed: true

package: libuuid1
version: 7
installed: true

package: libc6-i686
version: 1
installed: true

package: librpm0
version: 3
installed: true

package: libbonobo2-common
version: 2
installed: true

package: libgmime-2.4-2
version: 2
installed: true

package: ttf-dejavu
version: 2
installed: true

package: k3b-data
version: 1
installed: true

package: gnome-menus
version: 6
installed: true

package: libproxy0
version: 2
installed: true

package: libnl1
version: 2
installed: true

package: libnet-dns-perl
version: 10
installed: true

package: file
version: 3
installed: true

package: libgcc1
version: 19
installed: true

package: doc-debian
version: 2
installed: true

package: hicolor-icon-theme
version: 2
installed: true

package: python-xdg
version: 3
installed: true

package: libburn4
version: 4
installed: true

package: javascript-common
version: 1
installed: true

package: libgudev-1.0-0
version: 2
installed: true

package: mlocate
version: 1
installed: true

package: libxml-twig-perl
version: 5
installed: true

package: dash
version: 3
installed: true

package: gucharmap
version: 2
installed: true

package: ttf-dejavu-extra
version: 1
installed: true

package: emacs22
version: 2
installed: true

package: openoffice.org3
version: 1
installed: true

package: squeak-vm
version: 1
installed: true

package: libgnomeui-0
version: 7
installed: true

package: libc6-dev
version: 3
installed: true

package: firmware-linux-free
version: 2
installed: true

package: xserver-xorg-video-savage
version: 1
installed: true

package: libpt-1.10.10-plugins-alsa
version: 1
installed: true

package: libgnomeprintui2.2-common
version: 1
installed: true

package: libpt-1.10.10-plugins-v4l
version: 1
installed: true

package: gpointing-device-settings
version: 2
installed: true

package: libgpds0
version: 4
installed: true

package: libgnomeprint2.2-data
version: 1
installed: true

package: gsynaptics
version: 2
installed: true

package: python-gtkhtml2
version: 2
installed: true

# Answer: 54
# Optimization: 15 23 
# OPTIMUM FOUND
