-- START --
>>> Start processing at 11:41:29: 7266f636-4b23-11df-9e6e-00163e7a6f5e.cudf
>>> Start processing at 11:41:29: 58a4a468-38a5-11df-a561-00163e7a6f5e.cudf
>>> Finished processing after 15857s: 58a4a468-38a5-11df-a561-00163e7a6f5e.cudf
>>> Start processing at 16:05:47: 8ad21cec-4b22-11df-b280-00163e7a6f5e.cudf
>>> Finished processing after 18007s: 7266f636-4b23-11df-9e6e-00163e7a6f5e.cudf
>>> Start processing at 16:41:36: eeee44ce-5407-11df-b11f-00163e7a6f5e.cudf
>>> Finished processing after 13588s: eeee44ce-5407-11df-b11f-00163e7a6f5e.cudf
>>> Start processing at 20:28:04: 688250e8-4bb4-11df-a561-00163e7a6f5e.cudf
>>> Finished processing after 18006s: 8ad21cec-4b22-11df-b280-00163e7a6f5e.cudf
>>> Start processing at 21:05:53: e0bd67a6-56d0-11df-b11f-00163e7a6f5e.cudf
>>> Finished processing after 1473s: e0bd67a6-56d0-11df-b11f-00163e7a6f5e.cudf
>>> Start processing at 21:30:26: 2f690324-4939-11df-9e6e-00163e7a6f5e.cudf
>>> Finished processing after 18007s: 688250e8-4bb4-11df-a561-00163e7a6f5e.cudf
>>> Start processing at 01:28:10: 103c9978-5408-11df-9bc1-00163e7a6f5e.cudf
>>> Finished processing after 18006s: 2f690324-4939-11df-9e6e-00163e7a6f5e.cudf
>>> Start processing at 02:30:33: 7e7e0b16-38a5-11df-b280-00163e7a6f5e.cudf
>>> Finished processing after 13281s: 103c9978-5408-11df-9bc1-00163e7a6f5e.cudf
>>> Start processing at 05:09:31: 1dcce248-4bb4-11df-9e6e-00163e7a6f5e.cudf
>>> Finished processing after 15406s: 7e7e0b16-38a5-11df-b280-00163e7a6f5e.cudf
>>> Start processing at 06:47:19: cb0e73b0-0ffd-11df-9e59-00163e2c8d72.cudf
>>> Finished processing after 18006s: 1dcce248-4bb4-11df-9e6e-00163e7a6f5e.cudf
>>> Start processing at 10:09:38: e8a3eb4c-4c81-11df-8b8c-00163e7a6f5e.cudf
>>> Finished processing after 12632s: cb0e73b0-0ffd-11df-9e59-00163e2c8d72.cudf
>>> Start processing at 10:17:51: 9bb87ab4-4c36-11df-bc1e-00163e7a6f5e.cudf
>>> Finished processing after 18007s: e8a3eb4c-4c81-11df-8b8c-00163e7a6f5e.cudf
>>> Start processing at 15:09:44: 3e4f8550-0b33-11df-942d-00163e1d94dc.cudf
>>> Finished processing after 18007s: 9bb87ab4-4c36-11df-bc1e-00163e7a6f5e.cudf
>>> Start processing at 15:17:58: 29180036-5408-11df-9f57-00163e7a6f5e.cudf
>>> Finished processing after 14715s: 29180036-5408-11df-9f57-00163e7a6f5e.cudf
>>> Start processing at 19:23:13: 56ae4afa-0b33-11df-8a2b-00163e1d94dc.cudf
>>> Finished processing after 17477s: 3e4f8550-0b33-11df-942d-00163e1d94dc.cudf
>>> Start processing at 20:01:01: 218091ce-4bcc-11df-bc4e-00163e7a6f5e.cudf
>>> Finished processing after 17197s: 56ae4afa-0b33-11df-8a2b-00163e1d94dc.cudf
>>> Finished processing after 18006s: 218091ce-4bcc-11df-bc4e-00163e7a6f5e.cudf
>>> Start processing at 01:01:08: 412959c6-e965-11de-8ebf-00163e6585dd.cudf
>>> Finished processing after 9333s: 412959c6-e965-11de-8ebf-00163e6585dd.cudf
