>>> Parsing
>>> [Parsing took 0.052192s]
>>> Adding stanzas
	Stanzas ( 1/11): 1199 packages added
	Stanzas ( 2/11): 1199 versions added
	Stanzas ( 3/11): 1199 versioned packages added
	Stanzas ( 4/11): 1199 installations marked
	Stanzas ( 5/11): 7246 package version constraints added
	Stanzas ( 6/11): 4893 orDependencies added
	Stanzas ( 7/11): 1981 dependencies added
	Stanzas ( 8/11): 1981 dependencies marked
	Stanzas ( 9/11): 4700 conflicts marked
	Stanzas (10/11): 0 provides marked
	Stanzas (11/11): 1199 keep marked
>>> [Adding stanzas took 1.221407s]
>>> Cleaning structure
>>> Solving
>>> [Solving took 4.000000000115e-06s]
