>>> Parsing
>>> [Parsing took 13.966593s]
>>> Adding stanzas
	Stanzas ( 1/11): 106336 packages added
	Stanzas ( 2/11): 106336 versions added
	Stanzas ( 3/11): 106336 versioned packages added
	Stanzas ( 4/11): 106336 installations marked
	Stanzas ( 5/11): 749650 package version constraints added
	Stanzas ( 6/11): 674452 orDependencies added
	Stanzas ( 7/11): 511999 dependencies added
before ct
after ct
